{
  "status": "ok",
  "source": "googlenews",
  "sortBy": "top",
  "articles": [
    {
      "author": "Philip Rucker Jr.",
      "title": "'Dangerous,' 'utterly untruthful': Two retiring GOOP senators sound alarm on Trump",
      "description": "The remarks from Flake and Corker further escalate the civil war roiling the GOP ahead of the 2018 midterms.",
      "url": "https://www.enfogroup.com/Competence-Areas/Interactive",
      "urlToImage": "https://s3.eu-west-2.amazonaws.com/enfo-test-resources/images/AR-171029556.jpg",
      "publishedAt": "20171024T23:59:57Z"
    },
    {
      "author": "Javier C. Hernandez",
      "title": "China's 'Chairman of Everything': Behind Xi Jinping's Many Titles",
      "description": "Mr. Xi has used a bureaucrat's savvy to cement his control, inventing titles and institutions.",
      "url": "https://www.enfogroup.com/Competence-Areas/Interactive",
      "urlToImage": "https://s3.eu-west-2.amazonaws.com/enfo-test-resources/images/25xi-titles-1-master768.jpg",
      "publishedAt": "20171025T05:02:00Z"
    },
    {
      "author": "Roz",
      "title": "Clinton campaign, DNC paid for research that led to Russia dossier",
      "description": "Fusion GPS was hired by a Democratic lawyer acting on behalf of campaign and committee.",
      "url": "https://www.enfogroup.com/Competence-Areas/Interactive",
      "urlToImage": "https://s3.eu-west-2.amazonaws.com/enfo-test-resources/images/2016-04-15t032731z1105199499nocidrtrmadp3news14095837.jpg",
      "publishedAt": "20171024T22:25:34Z"
    },
    {
      "author": null,
      "title": "Declaration of independents: Hill rises, makes Series start",
      "description": "Rich Hill never believed he was out of chances, even when he wound up pitching for the independent Long Island Ducks in the summer of 2015",
      "url": "https://www.enfogroup.com/Competence-Areas/Interactive",
      "urlToImage": "https://s3.eu-west-2.amazonaws.com/enfo-test-resources/images/323dafbd83ba409c8e706cc841753989.jpg",
      "publishedAt": "20171025T08:12:07Z"
    },
    {
      "author": null,
      "title": "Report: George H.W. Bush apologizes after 'sexual assault' allegation",
      "description": "Former President George H.W. Bush has apologized after actress Heather Lind accused him of sexually assaulting her during a screening of her AMC show, according to a published report.",
      "url": "https://www.enfogroup.com/Competence-Areas/Interactive",
      "urlToImage": "https://s3.eu-west-2.amazonaws.com/enfo-test-resources/images/gettyimages-633944176-e99bfbfd-4476-40b9-99c4-fab54372ee9b.jpg",
      "publishedAt": "20171025T06:11:15Z"
    },
    {
      "author": null,
      "title": "Wall Street wins big as Senate votes to roll back regulation allowing consumers to sue their banks",
      "description": "Pence cast the deciding vote as the Senate approved a measure to kill new rules allowing U.S. consumers to band together in class action lawsuits.",
      "url": "https://www.enfogroup.com/Competence-Areas/Interactive",
      "urlToImage": "https://s3.eu-west-2.amazonaws.com/enfo-test-resources/images/59f066077f0c1.image.jpg",
      "publishedAt": "20171025T03:14:41Z"
    },
    {
      "author": "Nick Brown",
      "title": "Puerto Rico and Whitefish Energy defend controversial $300 million power contract",
      "description": "Whitefish Energy Holdings, a small energy...",
      "url": "https://www.enfogroup.com/Competence-Areas/Interactive",
      "urlToImage": "https://s3.eu-west-2.amazonaws.com/enfo-test-resources/images/rts1f5ur.jpg",
      "publishedAt": "20171025T02:12:18Z"
    },
    {
      "author": "Dan Merica and Kevin Liptak, CNN",
      "title": "Fact check: Sanders' list of Trump accomplishments",
      "description": "White House press secretary Sarah Sanders, defending President Donald Trump against withering criticism from members of his own party, rattled off a list of accomplishments she believes the President has accomplished in his first 10 months in office.",
      "url": "https://www.enfogroup.com/Competence-Areas/Interactive",
      "urlToImage": "https://s3.eu-west-2.amazonaws.com/enfo-test-resources/images/171020154117-sarah-sanders-10-20-2017-2-super-tease.jpg",
      "publishedAt": "20171024T22:27:07Z"
    },
    {
      "author": null,
      "title": "2 dead in Louisiana university shooting",
      "description": "The victims are identified as Earl Andrews and Monquiarius Caldwell, both 23",
      "url": "https://www.enfogroup.com/Competence-Areas/Interactive",
      "urlToImage": "https://s3.eu-west-2.amazonaws.com/enfo-test-resources/images/15241766_G.jpg",
      "publishedAt": "20171025T08:52:00Z"
    },
    {
      "author": "The Hindu Net Desk",
      "title": "Rex Tillerson in India | Live: 'India and USA are natural allies'",
      "description": "The U.S. Secretary of State and External Affairs Sushma Swaraj issue statements on defence, strategy and H1B visa.",
      "url": "https://www.enfogroup.com/Competence-Areas/Interactive",
      "urlToImage": "https://s3.eu-west-2.amazonaws.com/enfo-test-resources/images/PAKISTANTILLERSON.jpeg",
      "publishedAt": "20171025T07:54:42Z"
    },
    {
      "author": "Carl-Axel",
      "title": "Enfo",
      "description": "something here",
      "url": null,
      "urlToImage": null,
      "publishedAt": "2018-10-09T10:02:44.314Z"
    }
  ]
}
